{
  "$schema": "https://biomejs.dev/schemas/1.9.4/schema.json",
  "files": {
    "include": ["biome.json", "npm/**/*.js", "packages/*/lib/**/*.js", "packages/*/test/**/*.js"]
  },
  "formatter": {
    "enabled": true,
    "useEditorconfig": true
  },
  "javascript": {
    "formatter": {
      "quoteStyle": "single",
      "semicolons": "asNeeded",
      "trailingCommas": "es5"
    }
  },
  "linter": {
    "enabled": true,
    "rules": {
      "recommended": true,
      "complexity": {
        "noForEach": "off"
      },
      "performance": {
        "noDelete": "off"
      },
      "style": {
        "noArguments": "off",
        "noParameterAssign": "off",
        "useNumberNamespace": "off",
        "useSingleVarDeclarator": "off",
        "useTemplate": "off"
      },
      "suspicious": {
        "noAssignInExpressions": "off",
        "noRedundantUseStrict": "off"
      }
    }
  },
  "organizeImports": {
    "enabled": false
  }
}
